{
  "agent_name": "RESWUE",
  "email": "reswue@example.com",
  "google_avatar": "https://lh6.googleusercontent.com/-QyLXP7Ml4Eg/AAAAAAAAAAI/AAAAAAAAABI/cfZ6TST4sCU/photo.jpg?sz=50",
  "google_id": "110477265576843912947",
  "google_name": "RESWUE",
  "languages": [ "en", "de" ],
  "telegram": {
    "telegram_username" : "foo",
    "telegram_id": "123456789"
  },
  "location": {
    "lat": "58.009233",
    "lng": "-62.566417",
    "privacy": "rounded"
  },
  "zello_username": "RESWUE"
}